<?xml version="1.0" encoding="utf-8"?>
<!-- Generator: Adobe Illustrator 15.1.0, SVG Export Plug-In . SVG Version: 6.00 Build 0)  -->
<!-- <!DOCTYPE svg PUBLIC "-//W3C//DTD SVG 1.0//EN" "http://www.w3.org/TR/2001/REC-SVG-20010904/DTD/svg10.dtd" [
	<!ENTITY ns_flows "http://ns.adobe.com/Flows/1.0/">
	<!ENTITY ns_extend "http://ns.adobe.com/Extensibility/1.0/">
	<!ENTITY ns_ai "http://ns.adobe.com/AdobeIllustrator/10.0/">
	<!ENTITY ns_graphs "http://ns.adobe.com/Graphs/1.0/">
]> -->
<svg version="1.1" id="Layer_1" xmlns:x="http://ns.adobe.com/Extensibility/1.0/" xmlns:i="http://ns.adobe.com/AdobeIllustrator/10.0/" xmlns:graph="http://ns.adobe.com/Graphs/1.0/"
	 xmlns="http://www.w3.org/2000/svg" xmlns:xlink="http://www.w3.org/1999/xlink" xmlns:a="http://ns.adobe.com/AdobeSVGViewerExtensions/3.0/"
	 x="0px" y="0px" width="110.3px" height="106px" viewBox="0 0 110.3 106" enable-background="new 0 0 110.3 106"
	 xml:space="preserve">
<circle fill="#FFCF35" cx="55.8" cy="52.5" r="53"/>
<path fill="#FFB344" d="M108.8,52.5c0-1.1,0-2.3-0.1-3.4L91.8,32.2l-1.1,1.4L70.7,13.7L34.7,24.8l0,26.7l-18.1,15l39,39
	c0.1,0,0.2,0,0.3,0C85.1,105.5,108.8,81.8,108.8,52.5z"/>
<g>
	<path fill="#983262" d="M91.8,32.2l-38.7,9v30.3c-2.5-0.8-5.5-0.7-8.5,0.4c-5.9,2.1-9.4,7.3-7.8,11.6c1.5,4.3,7.6,6,13.4,3.9
		c4.9-1.8,8.1-5.6,8.2-9.4h0V45.4l28-6.5v32.7C84,70.9,81,71,78,72.1c-5.9,2.1-9.4,7.3-7.8,11.6c1.5,4.3,7.6,6,13.4,3.9
		c4.9-1.8,8.2-5.7,8.2-9.5l0,0V32.2z"/>
	<path fill="#983262" d="M53.1,41.2v30.3c-2.5-0.8-5.5-0.7-8.5,0.4c-5.9,2.1-9.4,7.3-7.8,11.6c1.5,4.3,7.6,6,13.4,3.9
		c4.9-1.8,8.1-5.6,8.2-9.4h0V45.4l12.5-2.9v-5.5L53.1,41.2z"/>
</g>
<path fill="#662E57" d="M70.9,37.1v5.5l15.5-3.6v32.7C84,70.9,81,71,78,72.1c-5.9,2.1-9.4,7.3-7.8,11.6c1.5,4.3,7.6,6,13.4,3.9
	c4.9-1.8,8.2-5.7,8.2-9.5l0,0V32.2L70.9,37.1z"/>
<path fill="#175D76" d="M70.7,13.7l-38.7,9V53c-2.5-0.8-5.5-0.7-8.5,0.4c-5.9,2.1-9.4,7.3-7.8,11.6c1.5,4.3,7.6,6,13.4,3.9
	c4.9-1.8,8.1-5.6,8.2-9.4h0V26.9l28-6.5v32.7c-2.5-0.8-5.5-0.7-8.5,0.4c-5.9,2.1-9.4,7.3-7.8,11.6c1.5,4.3,7.6,6,13.4,3.9
	c4.9-1.8,8.2-5.7,8.2-9.5h0V13.7z"/>
<path fill="#00263F" d="M50.2,18.4v5.5l15.2-3.5v32.7c-2.5-0.8-5.5-0.7-8.5,0.4c-5.9,2.1-9.4,7.3-7.8,11.6c1.5,4.3,7.6,6,13.4,3.9
	c4.9-1.8,8.2-5.7,8.2-9.5h0V13.7L50.2,18.4z"/>
</svg>
