<?xml version="1.0" encoding="utf-8"?>
<!-- Generator: Adobe Illustrator 15.1.0, SVG Export Plug-In . SVG Version: 6.00 Build 0)  -->
<!-- <!DOCTYPE svg PUBLIC "-//W3C//DTD SVG 1.1//EN" "http://www.w3.org/Graphics/SVG/1.1/DTD/svg11.dtd" [
	<!ENTITY ns_flows "http://ns.adobe.com/Flows/1.0/">
	<!ENTITY ns_extend "http://ns.adobe.com/Extensibility/1.0/">
	<!ENTITY ns_ai "http://ns.adobe.com/AdobeIllustrator/10.0/">
	<!ENTITY ns_graphs "http://ns.adobe.com/Graphs/1.0/">
]> -->
<svg version="1.1" id="Layer_1" xmlns:x="&ns_extend;" xmlns:i="&ns_ai;" xmlns:graph="&ns_graphs;"
	 xmlns="http://www.w3.org/2000/svg" xmlns:xlink="http://www.w3.org/1999/xlink" xmlns:a="http://ns.adobe.com/AdobeSVGViewerExtensions/3.0/"
	 x="0px" y="0px" width="22.6px" height="34.8px" viewBox="1.7 -9.4 22.6 34.8" enable-background="new 1.7 -9.4 22.6 34.8"
	 xml:space="preserve">
<g>
	<ellipse fill="#FFFFFF" cx="13.1" cy="1.4" rx="8.1" ry="7.7"/>
	<path fill="#ECD073" d="M13.2-5.1c1.2,0,2.3,0.3,3.1,0.7C15.2-6,13.2-9,13.2-9h0c0,0-2,2.9-3,4.5C10.9-4.9,12-5.1,13.2-5.1
		L13.2-5.1z"/>
	<g>
		<path fill="#333333"  a:adobe-opacity-share="1" d="M22,8.9c1.1-2.5,1.9-4.8,1.9-6.3c0-5-4-9.2-9.2-10c0.7,1.1,1.4,2.3,2,3.3
			c2.1,1.2,3.4,3.2,3.4,5.6c0,3.6-3.2,6.6-7.1,6.6C9.2,8.1,6,5.2,6,1.5C6-1,7.5-3.1,9.7-4.3c0.6-1,1.3-2.1,1.9-3.2
			c-5.3,0.7-9.3,4.9-9.3,10c0,2.5,2.1,7.1,4.4,11.3L22,8.9z"/>
		<path fill="#333333"  a:adobe-opacity-share="1" d="M7.9,16.7c2.3,4,4.5,7.3,4.5,7.3c0.4,0.6,1,0.6,1.4,0c0,0,3.8-5.7,6.7-11.4
			L7.9,16.7z"/>
	</g>
	<polygon fill="#ECD073" points="20.8,11.9 7.9,16.3 6.9,14.3 22,9.2 	"/>
	<ellipse fill="#9FCC3B" cx="13.1" cy="1.9" rx="4.4" ry="4.1"/>
</g>
</svg>
